<?xml version="1.0" encoding="UTF-8" standalone="no"?>
<svg
   xmlns:cdml="http://www.freesoftware.fsf.org/bkchem/cdml"
   xmlns:dc="http://purl.org/dc/elements/1.1/"
   xmlns:cc="http://creativecommons.org/ns#"
   xmlns:rdf="http://www.w3.org/1999/02/22-rdf-syntax-ns#"
   xmlns:svg="http://www.w3.org/2000/svg"
   xmlns="http://www.w3.org/2000/svg"
   xmlns:sodipodi="http://sodipodi.sourceforge.net/DTD/sodipodi-0.dtd"
   xmlns:inkscape="http://www.inkscape.org/namespaces/inkscape"
   height="31.081238mm"
   version="1.0"
   viewBox="0 0 675.37142 117.42617"
   width="178.76237mm"
   id="svg1631"
   sodipodi:docname="valxval.svg"
   inkscape:version="0.92.4 5da689c313, 2019-01-14">
  <metadata
     id="metadata1637">
    <rdf:RDF>
      <cc:Work
         rdf:about="">
        <dc:format>image/svg+xml</dc:format>
        <dc:type
           rdf:resource="http://purl.org/dc/dcmitype/StillImage" />
        <dc:title></dc:title>
      </cc:Work>
    </rdf:RDF>
  </metadata>
  <defs
     id="defs1635" />
  <sodipodi:namedview
     pagecolor="#ffffff"
     bordercolor="#666666"
     borderopacity="1"
     objecttolerance="10"
     gridtolerance="10"
     guidetolerance="10"
     inkscape:pageopacity="0"
     inkscape:pageshadow="2"
     inkscape:window-width="640"
     inkscape:window-height="480"
     id="namedview1633"
     showgrid="false"
     inkscape:zoom="1.844546"
     inkscape:cx="338.46321"
     inkscape:cy="57.972807"
     inkscape:current-layer="svg1631"
     inkscape:snap-bbox="true"
     inkscape:snap-bbox-midpoints="true"
     inkscape:snap-bbox-edge-midpoints="true"
     inkscape:bbox-nodes="true"
     inkscape:bbox-paths="true"
     inkscape:object-paths="true"
     inkscape:snap-smooth-nodes="true"
     inkscape:snap-midpoints="true"
     inkscape:snap-object-midpoints="true"
     inkscape:snap-text-baseline="true"
     inkscape:snap-center="true"
     fit-margin-top="0"
     fit-margin-left="0"
     fit-margin-right="0"
     fit-margin-bottom="0" />
  <g
     font-size="12pt"
     transform="translate(-60.669998,-10.023826)"
     id="g1629"
     style="font-size:16px;font-family:Helvetica;stroke-linecap:round">
    <g
       id="g1329"
       style="stroke:#000000;stroke-width:1">
      <line
         x1="467.29999"
         x2="490.20001"
         y1="82.779999"
         y2="96"
         id="line1327" />
    </g>
    <g
       id="g1335"
       style="stroke:#000000;stroke-width:1">
      <line
         x1="327.89999"
         x2="327.89999"
         y1="82.779999"
         y2="61"
         id="line1331" />
      <line
         x1="331.89999"
         x2="331.89999"
         y1="82.779999"
         y2="61"
         id="line1333" />
    </g>
    <g
       id="g1339"
       style="stroke:#000000;stroke-width:1">
      <line
         x1="270.88"
         x2="284.10001"
         y1="33.43"
         y2="10.53"
         id="line1337" />
    </g>
    <g
       id="g1343"
       style="stroke:#000000;stroke-width:1;stroke-linecap:butt">
      <line
         x1="169.60001"
         x2="169.60001"
         y1="101"
         y2="114"
         id="line1341" />
    </g>
    <g
       id="g1347"
       style="stroke:#000000;stroke-width:1">
      <line
         x1="581.79999"
         x2="604.70001"
         y1="96"
         y2="82.779999"
         id="line1345" />
    </g>
    <g
       id="g1351"
       style="stroke:#000000;stroke-width:1">
      <line
         x1="696.29999"
         x2="712"
         y1="82.779999"
         y2="91.839996"
         id="line1349" />
    </g>
    <g
       id="g1355"
       style="stroke:#000000;stroke-width:1">
      <line
         x1="270.88"
         x2="244.42999"
         y1="33.43"
         y2="33.43"
         id="line1353" />
    </g>
    <g
       id="g1359"
       style="stroke:#000000;stroke-width:1">
      <line
         x1="284.10001"
         x2="307"
         y1="82.779999"
         y2="96"
         id="line1357" />
    </g>
    <g
       id="g1363"
       style="stroke:#000000;stroke-width:1">
      <polygon
         points="103.4,56.33 101.4,82.78 100.4,82.78 98.4,56.33 "
         id="polygon1361"
         style="fill:#000000;stroke:#000000" />
    </g>
    <g
       id="g1367"
       style="stroke:#000000;stroke-width:1;stroke-linecap:butt">
      <line
         x1="261.20001"
         x2="261.20001"
         y1="101"
         y2="114"
         id="line1365" />
    </g>
    <g
       id="g1371"
       style="stroke:#000000;stroke-width:1">
      <polygon
         points="561.4,56.33 559.4,82.78 558.4,82.78 556.4,56.33 "
         id="polygon1369"
         style="fill:#000000;stroke:#000000" />
    </g>
    <g
       id="g1375"
       style="stroke:#000000;stroke-width:1">
      <line
         x1="513.09998"
         x2="529"
         y1="82.779999"
         y2="91.949997"
         id="line1373" />
    </g>
    <g
       id="g1379"
       style="stroke:#000000;stroke-width:1">
      <line
         x1="307"
         x2="329.89999"
         y1="96"
         y2="82.779999"
         id="line1377" />
    </g>
    <g
       id="g1385"
       style="stroke:#000000;stroke-width:1">
      <line
         x1="511.10001"
         x2="511.10001"
         y1="82.779999"
         y2="61"
         id="line1381" />
      <line
         x1="515.09998"
         x2="515.09998"
         y1="82.779999"
         y2="61"
         id="line1383" />
    </g>
    <g
       id="g1389"
       style="stroke:#000000;stroke-width:1">
      <line
         x1="673.40002"
         x2="696.29999"
         y1="96"
         y2="82.779999"
         id="line1387" />
    </g>
    <g
       id="g1393"
       style="stroke:#000000;stroke-width:1">
      <line
         x1="284.10001"
         x2="270.88"
         y1="56.330002"
         y2="33.43"
         id="line1391" />
    </g>
    <g
       id="g1397"
       style="stroke:#000000;stroke-width:1;stroke-linecap:butt">
      <line
         x1="536"
         x2="536"
         y1="101"
         y2="114"
         id="line1395" />
    </g>
    <g
       id="g1401"
       style="stroke:#000000;stroke-width:1">
      <line
         x1="100.9"
         x2="123.8"
         y1="56.330002"
         y2="43.110001"
         id="line1399" />
    </g>
    <g
       id="g1405"
       style="stroke:#000000;stroke-width:1">
      <line
         x1="467.29999"
         x2="490.20001"
         y1="56.330002"
         y2="43.110001"
         id="line1403" />
    </g>
    <g
       id="g1411"
       style="stroke:#000000;stroke-width:1">
      <line
         x1="144.7"
         x2="144.7"
         y1="82.779999"
         y2="61"
         id="line1407" />
      <line
         x1="148.7"
         x2="148.7"
         y1="82.779999"
         y2="61"
         id="line1409" />
    </g>
    <g
       id="g1415"
       style="stroke:#000000;stroke-width:1">
      <line
         x1="177"
         x2="192.5"
         y1="91.730003"
         y2="82.779999"
         id="line1413" />
    </g>
    <g
       id="g1419"
       style="stroke:#000000;stroke-width:1;stroke-linecap:butt">
      <line
         x1="352.79999"
         x2="352.79999"
         y1="101"
         y2="114"
         id="line1417" />
    </g>
    <g
       id="g1423"
       style="stroke:#000000;stroke-width:1">
      <line
         x1="490.20001"
         x2="513.09998"
         y1="96"
         y2="82.779999"
         id="line1421" />
    </g>
    <g
       id="g1427"
       style="stroke:#000000;stroke-width:1">
      <line
         x1="91.860001"
         x2="100.9"
         y1="88"
         y2="82.779999"
         id="line1425" />
    </g>
    <g
       id="g1431"
       style="stroke:#000000;stroke-width:1">
      <line
         x1="100.9"
         x2="123.8"
         y1="82.779999"
         y2="96"
         id="line1429" />
    </g>
    <g
       id="g1435"
       style="stroke:#000000;stroke-width:1">
      <line
         x1="558.90002"
         x2="581.79999"
         y1="82.779999"
         y2="96"
         id="line1433" />
    </g>
    <g
       id="g1439"
       style="stroke:#000000;stroke-width:1">
      <line
         x1="375.70001"
         x2="398.60001"
         y1="82.779999"
         y2="96"
         id="line1437" />
    </g>
    <g
       id="g1443"
       style="stroke:#000000;stroke-width:1">
      <line
         x1="543"
         x2="558.90002"
         y1="91.959999"
         y2="82.779999"
         id="line1441" />
    </g>
    <g
       id="g1447"
       style="stroke:#000000;stroke-width:1">
      <polygon
         points="378.2,56.33 376.2,82.78 375.2,82.78 373.2,56.33 "
         id="polygon1445"
         style="fill:#000000;stroke:#000000" />
    </g>
    <g
       id="g1451"
       style="stroke:#000000;stroke-width:1;stroke-linecap:butt">
      <line
         x1="444.39999"
         x2="444.39999"
         y1="101"
         y2="114"
         id="line1449" />
    </g>
    <g
       id="g1455"
       style="stroke:#000000;stroke-width:1">
      <polygon
         points="286.6,56.33 284.6,82.78 283.6,82.78 281.6,56.33 "
         id="polygon1453"
         style="fill:#000000;stroke:#000000" />
    </g>
    <g
       id="g1459"
       style="stroke:#000000;stroke-width:1">
      <line
         x1="215.39999"
         x2="238.3"
         y1="96"
         y2="82.779999"
         id="line1457" />
    </g>
    <g
       id="g1463"
       style="stroke:#000000;stroke-width:1">
      <line
         x1="637.28003"
         x2="650.5"
         y1="33.43"
         y2="10.53"
         id="line1461" />
    </g>
    <g
       id="g1467"
       style="stroke:#000000;stroke-width:1">
      <line
         x1="123.8"
         x2="146.7"
         y1="96"
         y2="82.779999"
         id="line1465" />
    </g>
    <g
       id="g1473"
       style="stroke:#000000;stroke-width:1">
      <line
         x1="602.70001"
         x2="602.70001"
         y1="82.779999"
         y2="61"
         id="line1469" />
      <line
         x1="606.70001"
         x2="606.70001"
         y1="82.779999"
         y2="61"
         id="line1471" />
    </g>
    <g
       id="g1479"
       style="stroke:#000000;stroke-width:1">
      <line
         x1="419.5"
         x2="419.5"
         y1="82.779999"
         y2="61"
         id="line1475" />
      <line
         x1="423.5"
         x2="423.5"
         y1="82.779999"
         y2="61"
         id="line1477" />
    </g>
    <g
       id="g1483"
       style="stroke:#000000;stroke-width:1">
      <line
         x1="650.5"
         x2="637.28003"
         y1="56.330002"
         y2="33.43"
         id="line1481" />
    </g>
    <g
       id="g1487"
       style="stroke:#000000;stroke-width:1;stroke-linecap:butt">
      <line
         x1="627.59998"
         x2="627.59998"
         y1="101"
         y2="114"
         id="line1485" />
    </g>
    <g
       id="g1491"
       style="stroke:#000000;stroke-width:1">
      <line
         x1="360"
         x2="375.70001"
         y1="91.839996"
         y2="82.779999"
         id="line1489" />
    </g>
    <g
       id="g1495"
       style="stroke:#000000;stroke-width:1">
      <line
         x1="451"
         x2="467.29999"
         y1="92.190002"
         y2="82.779999"
         id="line1493" />
    </g>
    <g
       id="g1499"
       style="stroke:#000000;stroke-width:1">
      <line
         x1="635"
         x2="650.5"
         y1="91.730003"
         y2="82.779999"
         id="line1497" />
    </g>
    <g
       id="g1503"
       style="stroke:#000000;stroke-width:1">
      <line
         x1="268"
         x2="284.10001"
         y1="92.07"
         y2="82.779999"
         id="line1501" />
    </g>
    <g
       id="g1507"
       style="stroke:#000000;stroke-width:1">
      <line
         x1="637.28003"
         x2="610.83002"
         y1="33.43"
         y2="33.43"
         id="line1505" />
    </g>
    <g
       id="g1511"
       style="stroke:#000000;stroke-width:1">
      <line
         x1="238.3"
         x2="254"
         y1="82.779999"
         y2="91.839996"
         id="line1509" />
    </g>
    <g
       id="g1515"
       style="stroke:#000000;stroke-width:1">
      <line
         x1="604.70001"
         x2="621"
         y1="82.779999"
         y2="92.18"
         id="line1513" />
    </g>
    <g
       id="g1521"
       style="stroke:#000000;stroke-width:1">
      <line
         x1="236.3"
         x2="236.3"
         y1="82.779999"
         y2="61"
         id="line1517" />
      <line
         x1="240.3"
         x2="240.3"
         y1="82.779999"
         y2="61"
         id="line1519" />
    </g>
    <g
       id="g1525"
       style="stroke:#000000;stroke-width:1">
      <line
         x1="100.9"
         x2="78"
         y1="56.330002"
         y2="43.110001"
         id="line1523" />
    </g>
    <g
       id="g1529"
       style="stroke:#000000;stroke-width:1">
      <polygon
         points="653,56.33 651,82.78 650,82.78 648,56.33 "
         id="polygon1527"
         style="fill:#000000;stroke:#000000" />
    </g>
    <g
       id="g1533"
       style="stroke:#000000;stroke-width:1">
      <line
         x1="329.89999"
         x2="346"
         y1="82.779999"
         y2="92.07"
         id="line1531" />
    </g>
    <g
       id="g1537"
       style="stroke:#000000;stroke-width:1">
      <line
         x1="192.5"
         x2="215.39999"
         y1="82.779999"
         y2="96"
         id="line1535" />
    </g>
    <g
       id="g1541"
       style="stroke:#000000;stroke-width:1">
      <polygon
         points="195,56.33 193,82.78 192,82.78 190,56.33 "
         id="polygon1539"
         style="fill:#000000;stroke:#000000" />
    </g>
    <g
       id="g1545"
       style="stroke:#000000;stroke-width:1">
      <polygon
         points="469.8,56.33 467.8,82.78 466.8,82.78 464.8,56.33 "
         id="polygon1543"
         style="fill:#000000;stroke:#000000" />
    </g>
    <g
       id="g1549"
       style="stroke:#000000;stroke-width:1">
      <line
         x1="650.5"
         x2="673.40002"
         y1="82.779999"
         y2="96"
         id="line1547" />
    </g>
    <g
       id="g1553"
       style="stroke:#000000;stroke-width:1">
      <line
         x1="398.60001"
         x2="421.5"
         y1="96"
         y2="82.779999"
         id="line1551" />
    </g>
    <g
       id="g1557"
       style="stroke:#000000;stroke-width:1">
      <line
         x1="146.7"
         x2="163"
         y1="82.779999"
         y2="92.18"
         id="line1555" />
    </g>
    <g
       id="g1563"
       style="stroke:#000000;stroke-width:1">
      <line
         x1="694.29999"
         x2="694.29999"
         y1="82.779999"
         y2="61"
         id="line1559" />
      <line
         x1="698.29999"
         x2="698.29999"
         y1="82.779999"
         y2="61"
         id="line1561" />
    </g>
    <g
       id="g1567"
       style="stroke:#000000;stroke-width:1">
      <polygon
         points="396.1,122.45 398.1,96 399.1,96 401.1,122.45 "
         id="polygon1565"
         style="fill:#000000;stroke:#000000" />
    </g>
    <g
       id="g1571"
       style="stroke:#000000;stroke-width:1">
      <line
         x1="421.5"
         x2="437"
         y1="82.779999"
         y2="91.720001"
         id="line1569" />
    </g>
    <g
       id="g1575"
       style="stroke:#000000;stroke-width:1">
      <line
         x1="467.29999"
         x2="444.39999"
         y1="56.330002"
         y2="43.110001"
         id="line1573" />
    </g>
    <text
       font-size="12pt"
       x="507.29999"
       y="61.330002"
       id="text1577"
       style="font-size:16px;font-family:helvetica;fill:#000000">O</text>
    <text
       font-size="12pt"
       x="690.29999"
       y="61.330002"
       id="text1579"
       style="font-size:16px;font-family:helvetica;fill:#000000">O</text>
    <text
       font-size="12pt"
       x="416.29999"
       y="61.330002"
       id="text1581"
       style="font-size:16px;font-family:helvetica;fill:#000000">O</text>
    <text
       font-size="12pt"
       x="622.29999"
       y="127.45"
       id="text1583"
       style="font-size:16px;font-family:helvetica;fill:#000000">H</text>
    <text
       font-size="12pt"
       x="164.3"
       y="101"
       id="text1585"
       style="font-size:16px;font-family:helvetica;fill:#000000">N</text>
    <text
       font-size="12pt"
       x="324.29999"
       y="61.330002"
       id="text1587"
       style="font-size:16px;font-family:helvetica;fill:#000000">O</text>
    <text
       font-size="12pt"
       x="622.29999"
       y="101"
       id="text1589"
       style="font-size:16px;font-family:helvetica;fill:#000000">N</text>
    <text
       font-size="12pt"
       x="347.29999"
       y="127.45"
       id="text1591"
       style="font-size:16px;font-family:helvetica;fill:#000000">H</text>
    <text
       font-size="12pt"
       x="438.29999"
       y="101"
       id="text1593"
       style="font-size:16px;font-family:helvetica;fill:#000000">N</text>
    <text
       font-size="12pt"
       x="713.29999"
       y="101"
       id="text1595"
       style="font-size:16px;font-family:helvetica;fill:#000000">OH</text>
    <text
       font-size="12pt"
       x="72.300003"
       y="101"
       id="text1599"
       style="font-size:16px;font-family:helvetica;fill:#000000">H<tspan
   baseline-shift="sub"
   font-size="75%"
   id="tspan1597"
   style="font-size:75%;baseline-shift:sub">3</tspan>
N</text>
    <g
       id="g1607">
      <circle
         cx="66.169998"
         cy="99.169998"
         id="ellipse1601"
         r="5"
         style="fill:none;stroke:#000000;stroke-width:1" />
      <line
         x1="63.169998"
         x2="69.169998"
         y1="99.169998"
         y2="99.169998"
         id="line1603"
         style="fill:#000000;stroke:#000000;stroke-width:1" />
      <line
         x1="66.169998"
         x2="66.169998"
         y1="96.169998"
         y2="102.17"
         id="line1605"
         style="fill:#000000;stroke:#000000;stroke-width:1" />
    </g>
    <text
       font-size="12pt"
       x="164.3"
       y="127.45"
       id="text1609"
       style="font-size:16px;font-family:helvetica;fill:#000000">H</text>
    <text
       font-size="12pt"
       x="530.29999"
       y="101"
       id="text1611"
       style="font-size:16px;font-family:helvetica;fill:#000000">N</text>
    <text
       font-size="12pt"
       x="255.3"
       y="101"
       id="text1613"
       style="font-size:16px;font-family:helvetica;fill:#000000">N</text>
    <text
       font-size="12pt"
       x="232.3"
       y="61.330002"
       id="text1615"
       style="font-size:16px;font-family:helvetica;fill:#000000">O</text>
    <text
       font-size="12pt"
       x="530.29999"
       y="127.45"
       id="text1617"
       style="font-size:16px;font-family:helvetica;fill:#000000">H</text>
    <text
       font-size="12pt"
       x="255.3"
       y="127.45"
       id="text1619"
       style="font-size:16px;font-family:helvetica;fill:#000000">H</text>
    <text
       font-size="12pt"
       x="438.29999"
       y="127.45"
       id="text1621"
       style="font-size:16px;font-family:helvetica;fill:#000000">H</text>
    <text
       font-size="12pt"
       x="599.29999"
       y="61.330002"
       id="text1623"
       style="font-size:16px;font-family:helvetica;fill:#000000">O</text>
    <text
       font-size="12pt"
       x="347.29999"
       y="101"
       id="text1625"
       style="font-size:16px;font-family:helvetica;fill:#000000">N</text>
    <text
       font-size="12pt"
       x="141.3"
       y="61.330002"
       id="text1627"
       style="font-size:16px;font-family:helvetica;fill:#000000">O</text>
  </g>
  <cdml:cdml
     version="0.16">
    <cdml:info>
      <cdml:author_program
         version="0.14.0-pre2">BKChem</cdml:author_program>
    </cdml:info>
    <cdml:paper
       crop_margin="10"
       crop_svg="1"
       orientation="portrait"
       replace_minus="0"
       type="A4"
       use_real_minus="0" />
    <cdml:viewport
       viewport="0.000000 0.000000 640.000000 480.000000" />
    <cdml:standard
       area_color=""
       font_family="helvetica"
       font_size="12"
       line_color="#000"
       line_width="1.0px"
       paper_crop_margin="10"
       paper_crop_svg="1"
       paper_orientation="portrait"
       paper_type="A4">
      <cdml:bond
         double-ratio="0.75"
         length="0.7cm"
         wedge-width="5.0px"
         width="6.0px" />
      <cdml:arrow
         length="1.6cm" />
      <cdml:atom
         show_hydrogens="0" />
    </cdml:standard>
    <cdml:molecule
       id="molecule76153"
       name="">
      <cdml:atom
         id="atom72234"
         name="O"
         pos="center-first"
         valency="2">
        <cdml:point
           x="13.581cm"
           y="1.491cm" />
      </cdml:atom>
      <cdml:atom
         id="atom96730"
         name="O"
         pos="center-first"
         valency="2">
        <cdml:point
           x="18.430cm"
           y="1.491cm" />
      </cdml:atom>
      <cdml:atom
         id="atom85855"
         name="O"
         pos="center-first"
         valency="2">
        <cdml:point
           x="11.157cm"
           y="1.491cm" />
      </cdml:atom>
      <cdml:atom
         id="atom71279"
         name="C"
         valency="4">
        <cdml:point
           x="14.793cm"
           y="1.491cm" />
      </cdml:atom>
      <cdml:atom
         id="atom77478"
         name="H"
         pos="center-first"
         valency="1">
        <cdml:point
           x="16.612cm"
           y="3.241cm" />
      </cdml:atom>
      <cdml:atom
         id="atom55538"
         name="C"
         valency="4">
        <cdml:point
           x="5.095cm"
           y="1.491cm" />
      </cdml:atom>
      <cdml:atom
         id="atom61667"
         name="N"
         pos="center-first"
         valency="3">
        <cdml:point
           x="4.489cm"
           y="2.541cm" />
      </cdml:atom>
      <cdml:atom
         id="atom62898"
         name="C"
         valency="4">
        <cdml:point
           x="3.277cm"
           y="1.141cm" />
      </cdml:atom>
      <cdml:atom
         id="atom26181"
         name="C"
         valency="4">
        <cdml:point
           x="12.975cm"
           y="2.541cm" />
      </cdml:atom>
      <cdml:atom
         id="atom7229"
         name="O"
         pos="center-first"
         valency="2">
        <cdml:point
           x="8.732cm"
           y="1.491cm" />
      </cdml:atom>
      <cdml:atom
         id="atom47864"
         name="N"
         pos="center-first"
         valency="3">
        <cdml:point
           x="16.612cm"
           y="2.541cm" />
      </cdml:atom>
      <cdml:atom
         id="atom94703"
         name="C"
         valency="4">
        <cdml:point
           x="12.369cm"
           y="2.191cm" />
      </cdml:atom>
      <cdml:atom
         id="atom31972"
         name="H"
         pos="center-first"
         valency="1">
        <cdml:point
           x="9.338cm"
           y="3.241cm" />
      </cdml:atom>
      <cdml:atom
         id="atom21905"
         name="N"
         pos="center-first"
         valency="3">
        <cdml:point
           x="11.763cm"
           y="2.541cm" />
      </cdml:atom>
      <cdml:atom
         id="atom59651"
         name="C"
         valency="4">
        <cdml:point
           x="16.006cm"
           y="2.191cm" />
      </cdml:atom>
      <cdml:atom
         id="atom27055"
         name="C"
         valency="4">
        <cdml:point
           x="3.883cm"
           y="2.191cm" />
      </cdml:atom>
      <cdml:atom
         hydrogens="on"
         id="atom22118"
         name="O"
         pos="center-first"
         valency="2">
        <cdml:point
           x="19.036cm"
           y="2.541cm" />
      </cdml:atom>
      <cdml:text
         id="atom28852"
         pos="center-first">
        <cdml:ftext>H&lt;sub&gt;3&lt;/sub&gt;N</cdml:ftext>
        <cdml:point
           x="2.065cm"
           y="2.541cm" />
        <cdml:mark
           auto="1"
           draw_circle="yes"
           size="10"
           type="plus"
           x="1.751cm"
           y="2.625cm" />
      </cdml:text>
      <cdml:atom
         id="atom60043"
         name="C"
         valency="4">
        <cdml:point
           x="17.218cm"
           y="2.191cm" />
      </cdml:atom>
      <cdml:atom
         id="atom55299"
         name="H"
         pos="center-first"
         valency="1">
        <cdml:point
           x="4.489cm"
           y="3.241cm" />
      </cdml:atom>
      <cdml:atom
         id="atom85014"
         name="C"
         valency="4">
        <cdml:point
           x="11.157cm"
           y="2.191cm" />
      </cdml:atom>
      <cdml:atom
         id="atom6517"
         name="C"
         valency="4">
        <cdml:point
           x="8.732cm"
           y="2.191cm" />
      </cdml:atom>
      <cdml:atom
         id="atom19748"
         name="C"
         valency="4">
        <cdml:point
           x="9.944cm"
           y="2.191cm" />
      </cdml:atom>
      <cdml:atom
         id="atom47788"
         name="C"
         valency="4">
        <cdml:point
           x="17.824cm"
           y="2.541cm" />
      </cdml:atom>
      <cdml:atom
         id="atom6930"
         name="C"
         valency="4">
        <cdml:point
           x="5.095cm"
           y="2.191cm" />
      </cdml:atom>
      <cdml:atom
         id="atom96321"
         name="N"
         pos="center-first"
         valency="3">
        <cdml:point
           x="14.187cm"
           y="2.541cm" />
      </cdml:atom>
      <cdml:atom
         id="atom80457"
         name="C"
         valency="4">
        <cdml:point
           x="2.065cm"
           y="1.141cm" />
      </cdml:atom>
      <cdml:atom
         id="atom54670"
         name="C"
         valency="4">
        <cdml:point
           x="17.218cm"
           y="1.491cm" />
      </cdml:atom>
      <cdml:atom
         id="atom90903"
         name="C"
         valency="4">
        <cdml:point
           x="2.671cm"
           y="2.191cm" />
      </cdml:atom>
      <cdml:atom
         id="atom21308"
         name="C"
         valency="4">
        <cdml:point
           x="15.400cm"
           y="2.541cm" />
      </cdml:atom>
      <cdml:atom
         id="atom58539"
         name="N"
         pos="center-first"
         valency="3">
        <cdml:point
           x="6.914cm"
           y="2.541cm" />
      </cdml:atom>
      <cdml:atom
         id="atom39322"
         name="C"
         valency="4">
        <cdml:point
           x="10.551cm"
           y="2.541cm" />
      </cdml:atom>
      <cdml:atom
         id="atom83234"
         name="C"
         valency="4">
        <cdml:point
           x="5.701cm"
           y="2.541cm" />
      </cdml:atom>
      <cdml:atom
         id="atom41321"
         name="C"
         valency="4">
        <cdml:point
           x="9.944cm"
           y="1.491cm" />
      </cdml:atom>
      <cdml:atom
         id="atom50375"
         name="C"
         valency="4">
        <cdml:point
           x="10.551cm"
           y="3.241cm" />
      </cdml:atom>
      <cdml:atom
         id="atom26709"
         name="C"
         valency="4">
        <cdml:point
           x="14.793cm"
           y="2.191cm" />
      </cdml:atom>
      <cdml:atom
         id="atom91769"
         name="O"
         pos="center-first"
         valency="2">
        <cdml:point
           x="6.308cm"
           y="1.491cm" />
      </cdml:atom>
      <cdml:atom
         id="atom20863"
         name="C"
         valency="4">
        <cdml:point
           x="6.308cm"
           y="2.191cm" />
      </cdml:atom>
      <cdml:atom
         id="atom45702"
         name="C"
         valency="4">
        <cdml:point
           x="7.520cm"
           y="1.491cm" />
      </cdml:atom>
      <cdml:atom
         id="atom38965"
         name="H"
         pos="center-first"
         valency="1">
        <cdml:point
           x="14.187cm"
           y="3.241cm" />
      </cdml:atom>
      <cdml:atom
         id="atom33310"
         name="C"
         valency="4">
        <cdml:point
           x="3.277cm"
           y="2.541cm" />
      </cdml:atom>
      <cdml:atom
         id="atom23412"
         name="H"
         pos="center-first"
         valency="1">
        <cdml:point
           x="6.914cm"
           y="3.241cm" />
      </cdml:atom>
      <cdml:atom
         id="atom61750"
         name="H"
         pos="center-first"
         valency="1">
        <cdml:point
           x="11.763cm"
           y="3.241cm" />
      </cdml:atom>
      <cdml:atom
         id="atom85917"
         name="O"
         pos="center-first"
         valency="2">
        <cdml:point
           x="16.006cm"
           y="1.491cm" />
      </cdml:atom>
      <cdml:atom
         id="atom22035"
         name="N"
         pos="center-first"
         valency="3">
        <cdml:point
           x="9.338cm"
           y="2.541cm" />
      </cdml:atom>
      <cdml:atom
         id="atom26423"
         name="C"
         valency="4">
        <cdml:point
           x="7.520cm"
           y="2.191cm" />
      </cdml:atom>
      <cdml:atom
         id="atom95671"
         name="C"
         valency="4">
        <cdml:point
           x="8.126cm"
           y="2.541cm" />
      </cdml:atom>
      <cdml:atom
         id="atom39668"
         name="C"
         valency="4">
        <cdml:point
           x="12.369cm"
           y="1.491cm" />
      </cdml:atom>
      <cdml:atom
         id="atom62458"
         name="C"
         valency="4">
        <cdml:point
           x="13.581cm"
           y="2.191cm" />
      </cdml:atom>
      <cdml:atom
         id="atom3144"
         name="C"
         valency="4">
        <cdml:point
           x="2.671cm"
           y="1.491cm" />
      </cdml:atom>
      <cdml:atom
         id="atom22145"
         name="C"
         valency="4">
        <cdml:point
           x="18.430cm"
           y="2.191cm" />
      </cdml:atom>
      <cdml:atom
         id="atom97839"
         name="O"
         pos="center-first"
         valency="2">
        <cdml:point
           x="3.883cm"
           y="1.491cm" />
      </cdml:atom>
      <cdml:atom
         id="atom7027"
         name="C"
         valency="4">
        <cdml:point
           x="7.170cm"
           y="0.885cm" />
      </cdml:atom>
      <cdml:atom
         id="atom60728"
         name="C"
         valency="4">
        <cdml:point
           x="7.520cm"
           y="0.279cm" />
      </cdml:atom>
      <cdml:atom
         id="atom71903"
         name="C"
         valency="4">
        <cdml:point
           x="6.470cm"
           y="0.885cm" />
      </cdml:atom>
      <cdml:atom
         id="atom17862"
         name="C"
         valency="4">
        <cdml:point
           x="11.763cm"
           y="1.141cm" />
      </cdml:atom>
      <cdml:atom
         id="atom54961"
         name="C"
         valency="4">
        <cdml:point
           x="12.975cm"
           y="1.141cm" />
      </cdml:atom>
      <cdml:atom
         id="atom38703"
         name="C"
         valency="4">
        <cdml:point
           x="16.868cm"
           y="0.885cm" />
      </cdml:atom>
      <cdml:atom
         id="atom51642"
         name="C"
         valency="4">
        <cdml:point
           x="16.168cm"
           y="0.885cm" />
      </cdml:atom>
      <cdml:atom
         id="atom27354"
         name="C"
         valency="4">
        <cdml:point
           x="17.218cm"
           y="0.279cm" />
      </cdml:atom>
      <cdml:bond
         double_ratio="0.75"
         end="atom26181"
         id="bond11032"
         line_width="1.0"
         start="atom94703"
         type="n1" />
      <cdml:bond
         bond_width="6.0"
         center="yes"
         double_ratio="0.75"
         end="atom7229"
         id="bond70948"
         line_width="1.0"
         start="atom6517"
         type="n2" />
      <cdml:bond
         double_ratio="0.75"
         end="atom60728"
         id="bond20512"
         line_width="1.0"
         start="atom7027"
         type="n1" />
      <cdml:bond
         double_ratio="0.75"
         end="atom55299"
         id="bond22746"
         line_width="1.0"
         start="atom61667"
         type="n1" />
      <cdml:bond
         double_ratio="0.75"
         end="atom59651"
         id="bond3678"
         line_width="1.0"
         start="atom21308"
         type="n1" />
      <cdml:bond
         double_ratio="0.75"
         end="atom22118"
         id="bond16663"
         line_width="1.0"
         start="atom22145"
         type="n1" />
      <cdml:bond
         double_ratio="0.75"
         end="atom71903"
         id="bond43955"
         line_width="1.0"
         start="atom7027"
         type="n1" />
      <cdml:bond
         double_ratio="0.75"
         end="atom95671"
         id="bond13130"
         line_width="1.0"
         start="atom26423"
         type="n1" />
      <cdml:bond
         double_ratio="0.75"
         end="atom3144"
         id="bond37530"
         line_width="1.0"
         start="atom90903"
         type="w1"
         wedge_width="5.0" />
      <cdml:bond
         double_ratio="0.75"
         end="atom23412"
         id="bond11943"
         line_width="1.0"
         start="atom58539"
         type="n1" />
      <cdml:bond
         double_ratio="0.75"
         end="atom71279"
         id="bond39284"
         line_width="1.0"
         start="atom26709"
         type="w1"
         wedge_width="5.0" />
      <cdml:bond
         double_ratio="0.75"
         end="atom96321"
         id="bond84652"
         line_width="1.0"
         start="atom62458"
         type="n1" />
      <cdml:bond
         double_ratio="0.75"
         end="atom6517"
         id="bond65844"
         line_width="1.0"
         start="atom95671"
         type="n1" />
      <cdml:bond
         bond_width="6.0"
         center="yes"
         double_ratio="0.75"
         end="atom72234"
         id="bond99128"
         line_width="1.0"
         start="atom62458"
         type="n2" />
      <cdml:bond
         double_ratio="0.75"
         end="atom22145"
         id="bond304"
         line_width="1.0"
         start="atom47788"
         type="n1" />
      <cdml:bond
         double_ratio="0.75"
         end="atom7027"
         id="bond69840"
         line_width="1.0"
         start="atom45702"
         type="n1" />
      <cdml:bond
         double_ratio="0.75"
         end="atom38965"
         id="bond87056"
         line_width="1.0"
         start="atom96321"
         type="n1" />
      <cdml:bond
         double_ratio="0.75"
         end="atom62898"
         id="bond70374"
         line_width="1.0"
         start="atom3144"
         type="n1" />
      <cdml:bond
         double_ratio="0.75"
         end="atom54961"
         id="bond11104"
         line_width="1.0"
         start="atom39668"
         type="n1" />
      <cdml:bond
         bond_width="6.0"
         center="yes"
         double_ratio="0.75"
         end="atom97839"
         id="bond10797"
         line_width="1.0"
         start="atom27055"
         type="n2" />
      <cdml:bond
         double_ratio="0.75"
         end="atom6930"
         id="bond33681"
         line_width="1.0"
         start="atom61667"
         type="n1" />
      <cdml:bond
         double_ratio="0.75"
         end="atom31972"
         id="bond73098"
         line_width="1.0"
         start="atom22035"
         type="n1" />
      <cdml:bond
         double_ratio="0.75"
         end="atom62458"
         id="bond25204"
         line_width="1.0"
         start="atom26181"
         type="n1" />
      <cdml:bond
         double_ratio="0.75"
         end="atom90903"
         id="bond98239"
         line_width="1.0"
         start="atom28852"
         type="n1" />
      <cdml:bond
         double_ratio="0.75"
         end="atom33310"
         id="bond94054"
         line_width="1.0"
         start="atom90903"
         type="n1" />
      <cdml:bond
         double_ratio="0.75"
         end="atom21308"
         id="bond62632"
         line_width="1.0"
         start="atom26709"
         type="n1" />
      <cdml:bond
         double_ratio="0.75"
         end="atom39322"
         id="bond48498"
         line_width="1.0"
         start="atom19748"
         type="n1" />
      <cdml:bond
         double_ratio="0.75"
         end="atom26709"
         id="bond6190"
         line_width="1.0"
         start="atom96321"
         type="n1" />
      <cdml:bond
         double_ratio="0.75"
         end="atom41321"
         id="bond69681"
         line_width="1.0"
         start="atom19748"
         type="w1"
         wedge_width="5.0" />
      <cdml:bond
         double_ratio="0.75"
         end="atom61750"
         id="bond74175"
         line_width="1.0"
         start="atom21905"
         type="n1" />
      <cdml:bond
         double_ratio="0.75"
         end="atom45702"
         id="bond22591"
         line_width="1.0"
         start="atom26423"
         type="w1"
         wedge_width="5.0" />
      <cdml:bond
         double_ratio="0.75"
         end="atom20863"
         id="bond37698"
         line_width="1.0"
         start="atom83234"
         type="n1" />
      <cdml:bond
         double_ratio="0.75"
         end="atom27354"
         id="bond28775"
         line_width="1.0"
         start="atom38703"
         type="n1" />
      <cdml:bond
         double_ratio="0.75"
         end="atom27055"
         id="bond33175"
         line_width="1.0"
         start="atom33310"
         type="n1" />
      <cdml:bond
         bond_width="6.0"
         center="yes"
         double_ratio="0.75"
         end="atom85917"
         id="bond5011"
         line_width="1.0"
         start="atom59651"
         type="n2" />
      <cdml:bond
         bond_width="6.0"
         center="yes"
         double_ratio="0.75"
         end="atom85855"
         id="bond33653"
         line_width="1.0"
         start="atom85014"
         type="n2" />
      <cdml:bond
         double_ratio="0.75"
         end="atom38703"
         id="bond53845"
         line_width="1.0"
         start="atom54670"
         type="n1" />
      <cdml:bond
         double_ratio="0.75"
         end="atom77478"
         id="bond48380"
         line_width="1.0"
         start="atom47864"
         type="n1" />
      <cdml:bond
         double_ratio="0.75"
         end="atom19748"
         id="bond2203"
         line_width="1.0"
         start="atom22035"
         type="n1" />
      <cdml:bond
         double_ratio="0.75"
         end="atom94703"
         id="bond43480"
         line_width="1.0"
         start="atom21905"
         type="n1" />
      <cdml:bond
         double_ratio="0.75"
         end="atom60043"
         id="bond62467"
         line_width="1.0"
         start="atom47864"
         type="n1" />
      <cdml:bond
         double_ratio="0.75"
         end="atom26423"
         id="bond37822"
         line_width="1.0"
         start="atom58539"
         type="n1" />
      <cdml:bond
         double_ratio="0.75"
         end="atom51642"
         id="bond99114"
         line_width="1.0"
         start="atom38703"
         type="n1" />
      <cdml:bond
         double_ratio="0.75"
         end="atom58539"
         id="bond49651"
         line_width="1.0"
         start="atom20863"
         type="n1" />
      <cdml:bond
         double_ratio="0.75"
         end="atom47864"
         id="bond36694"
         line_width="1.0"
         start="atom59651"
         type="n1" />
      <cdml:bond
         bond_width="6.0"
         center="yes"
         double_ratio="0.75"
         end="atom91769"
         id="bond87405"
         line_width="1.0"
         start="atom20863"
         type="n2" />
      <cdml:bond
         double_ratio="0.75"
         end="atom80457"
         id="bond98915"
         line_width="1.0"
         start="atom3144"
         type="n1" />
      <cdml:bond
         double_ratio="0.75"
         end="atom54670"
         id="bond64623"
         line_width="1.0"
         start="atom60043"
         type="w1"
         wedge_width="5.0" />
      <cdml:bond
         double_ratio="0.75"
         end="atom22035"
         id="bond46245"
         line_width="1.0"
         start="atom6517"
         type="n1" />
      <cdml:bond
         double_ratio="0.75"
         end="atom83234"
         id="bond32234"
         line_width="1.0"
         start="atom6930"
         type="n1" />
      <cdml:bond
         double_ratio="0.75"
         end="atom55538"
         id="bond41085"
         line_width="1.0"
         start="atom6930"
         type="w1"
         wedge_width="5.0" />
      <cdml:bond
         double_ratio="0.75"
         end="atom39668"
         id="bond37128"
         line_width="1.0"
         start="atom94703"
         type="w1"
         wedge_width="5.0" />
      <cdml:bond
         double_ratio="0.75"
         end="atom47788"
         id="bond31152"
         line_width="1.0"
         start="atom60043"
         type="n1" />
      <cdml:bond
         double_ratio="0.75"
         end="atom85014"
         id="bond35990"
         line_width="1.0"
         start="atom39322"
         type="n1" />
      <cdml:bond
         double_ratio="0.75"
         end="atom61667"
         id="bond40740"
         line_width="1.0"
         start="atom27055"
         type="n1" />
      <cdml:bond
         bond_width="6.0"
         center="yes"
         double_ratio="0.75"
         end="atom96730"
         id="bond48642"
         line_width="1.0"
         start="atom22145"
         type="n2" />
      <cdml:bond
         double_ratio="0.75"
         end="atom50375"
         id="bond36469"
         line_width="1.0"
         start="atom39322"
         type="w1"
         wedge_width="5.0" />
      <cdml:bond
         double_ratio="0.75"
         end="atom21905"
         id="bond15800"
         line_width="1.0"
         start="atom85014"
         type="n1" />
      <cdml:bond
         double_ratio="0.75"
         end="atom17862"
         id="bond38920"
         line_width="1.0"
         start="atom39668"
         type="n1" />
    </cdml:molecule>
  </cdml:cdml>
</svg>
